%!PS-Adobe-3.0
%%Creator: PCBNEW
%%CreationDate: Tue Jan 25 19:31:02 2022
%%Title: ()
%%Pages: 1
%%PageOrder: Ascend
%%BoundingBox: 0 0 596 842
%%DocumentMedia: A4 595 842 0 () ()
%%Orientation: Landscape
%%EndComments
%%BeginProlog
/line { newpath moveto lineto stroke } bind def
/cir0 { newpath 0 360 arc stroke } bind def
/cir1 { newpath 0 360 arc gsave fill grestore stroke } bind def
/cir2 { newpath 0 360 arc gsave fill grestore stroke } bind def
/arc0 { newpath arc stroke } bind def
/arc1 { newpath 4 index 4 index moveto arc closepath gsave fill
    grestore stroke } bind def
/arc2 { newpath 4 index 4 index moveto arc closepath gsave fill
    grestore stroke } bind def
/poly0 { stroke } bind def
/poly1 { closepath gsave fill grestore stroke } bind def
/poly2 { closepath gsave fill grestore stroke } bind def
/rect0 { rectstroke } bind def
/rect1 { rectfill } bind def
/rect2 { rectfill } bind def
/linemode0 { 0 setlinecap 0 setlinejoin 0 setlinewidth } bind def
/linemode1 { 1 setlinecap 1 setlinejoin } bind def
/dashedline { [200] 100 setdash } bind def
/solidline { [] 0 setdash } bind def
/phantomshow { moveto
    /KicadFont findfont 0.000001 scalefont setfont
    show } bind def
/textshow { gsave
    findfont exch scalefont setfont concat 1 scale 0 0 moveto show
    } bind def
/reencodefont {
  findfont dup length dict begin
  { 1 index /FID ne
    { def }
    { pop pop } ifelse
  } forall
  /Encoding ISOLatin1Encoding def
  currentdict
  end } bind def
/KicadFont /Helvetica reencodefont definefont pop
/KicadFont-Bold /Helvetica-Bold reencodefont definefont pop
/KicadFont-Oblique /Helvetica-Oblique reencodefont definefont pop
/KicadFont-BoldOblique /Helvetica-BoldOblique reencodefont definefont pop
%%EndProlog
%%Page: 1 1
%%BeginPageSetup
gsave
0.0072 0.0072 scale
linemode1
82680 0 translate 90 rotate
236.22 setlinewidth
%%EndPageSetup
0 0 0 setrgbcolor
118.11 setlinewidth
newpath
71965 45876 moveto
44965 45876 lineto
stroke
newpath
44965 45876 moveto
44965 69876 lineto
stroke
newpath
44965 69876 moveto
71965 69876 lineto
stroke
newpath
71965 69876 moveto
71965 45876 lineto
stroke
236.22 setlinewidth
94.4882 setlinewidth
newpath
50492.6 64348.4 moveto
51437.4 63403.6 lineto
stroke
newpath
51437.4 64348.4 moveto
50492.6 63403.6 lineto
stroke
newpath
62492.6 64348.4 moveto
63437.4 63403.6 lineto
stroke
newpath
63437.4 64348.4 moveto
62492.6 63403.6 lineto
stroke
106.299 setlinewidth
62965 54876 531.496 cir0
62965 51876 531.496 cir0
118.11 setlinewidth
newpath
50965 55466.6 moveto
50965 54285.4 lineto
stroke
newpath
50374.4 54876 moveto
51555.6 54876 lineto
stroke
newpath
50965 52466.6 moveto
50965 51285.4 lineto
stroke
newpath
50374.4 51876 moveto
51555.6 51876 lineto
stroke
236.22 setlinewidth
78.7406 setlinewidth
0 0 0 setrgbcolor
0 0 0 setrgbcolor
newpath
45920.2 44594.6 moveto
45920.2 45382 lineto
46107.7 45382 lineto
46220.2 45344.5 lineto
46295.1 45269.5 lineto
46332.6 45194.5 lineto
46370.1 45044.5 lineto
46370.1 44932.1 lineto
46332.6 44782.1 lineto
46295.1 44707.1 lineto
46220.2 44632.1 lineto
46107.7 44594.6 lineto
45920.2 44594.6 lineto
stroke
newpath
46707.6 44594.6 moveto
46707.6 45119.5 lineto
stroke
newpath
46707.6 44969.6 moveto
46745.1 45044.5 lineto
46782.6 45082 lineto
46857.6 45119.5 lineto
46932.6 45119.5 lineto
stroke
newpath
47195 44594.6 moveto
47195 45119.5 lineto
stroke
newpath
47195 45382 moveto
47157.5 45344.5 lineto
47195 45307 lineto
47232.5 45344.5 lineto
47195 45382 lineto
47195 45307 lineto
stroke
newpath
47682.5 44594.6 moveto
47607.5 44632.1 lineto
47570 44707.1 lineto
47570 45382 lineto
stroke
newpath
48094.9 44594.6 moveto
48019.9 44632.1 lineto
47982.4 44707.1 lineto
47982.4 45382 lineto
stroke
newpath
48994.8 44594.6 moveto
48994.8 45382 lineto
49257.3 44819.6 lineto
49519.7 45382 lineto
49519.7 44594.6 lineto
stroke
newpath
50232.2 44594.6 moveto
50232.2 45007 lineto
50194.7 45082 lineto
50119.7 45119.5 lineto
49969.7 45119.5 lineto
49894.7 45082 lineto
stroke
newpath
50232.2 44632.1 moveto
50157.2 44594.6 lineto
49969.7 44594.6 lineto
49894.7 44632.1 lineto
49857.2 44707.1 lineto
49857.2 44782.1 lineto
49894.7 44857.1 lineto
49969.7 44894.6 lineto
50157.2 44894.6 lineto
50232.2 44932.1 lineto
stroke
newpath
50607.1 45119.5 moveto
50607.1 44332.1 lineto
stroke
newpath
50607.1 45082 moveto
50682.1 45119.5 lineto
50832.1 45119.5 lineto
50907.1 45082 lineto
50944.6 45044.5 lineto
50982.1 44969.6 lineto
50982.1 44744.6 lineto
50944.6 44669.6 lineto
50907.1 44632.1 lineto
50832.1 44594.6 lineto
50682.1 44594.6 lineto
50607.1 44632.1 lineto
stroke
newpath
51319.5 44669.6 moveto
51357 44632.1 lineto
51319.5 44594.6 lineto
51282 44632.1 lineto
51319.5 44669.6 lineto
51319.5 44594.6 lineto
stroke
newpath
51319.5 45082 moveto
51357 45044.5 lineto
51319.5 45007 lineto
51282 45044.5 lineto
51319.5 45082 lineto
51319.5 45007 lineto
stroke
78.7394 setlinewidth
newpath
44118.5 43691 moveto
44905.9 42903.6 lineto
stroke
newpath
44905.9 43691 moveto
44118.5 42903.6 lineto
stroke
236.22 setlinewidth
78.7406 setlinewidth
0 0 0 setrgbcolor
0 0 0 setrgbcolor
newpath
46070.2 43728.5 moveto
46145.2 43728.5 lineto
46220.2 43691 lineto
46257.7 43653.5 lineto
46295.1 43578.5 lineto
46332.6 43428.5 lineto
46332.6 43241 lineto
46295.1 43091 lineto
46257.7 43016 lineto
46220.2 42978.5 lineto
46145.2 42941.1 lineto
46070.2 42941.1 lineto
45995.2 42978.5 lineto
45957.7 43016 lineto
45920.2 43091 lineto
45882.7 43241 lineto
45882.7 43428.5 lineto
45920.2 43578.5 lineto
45957.7 43653.5 lineto
45995.2 43691 lineto
46070.2 43728.5 lineto
stroke
newpath
46670.1 43016 moveto
46707.6 42978.5 lineto
46670.1 42941.1 lineto
46632.6 42978.5 lineto
46670.1 43016 lineto
46670.1 42941.1 lineto
stroke
newpath
47157.5 43391 moveto
47082.5 43428.5 lineto
47045.1 43466 lineto
47007.6 43541 lineto
47007.6 43578.5 lineto
47045.1 43653.5 lineto
47082.5 43691 lineto
47157.5 43728.5 lineto
47307.5 43728.5 lineto
47382.5 43691 lineto
47420 43653.5 lineto
47457.5 43578.5 lineto
47457.5 43541 lineto
47420 43466 lineto
47382.5 43428.5 lineto
47307.5 43391 lineto
47157.5 43391 lineto
47082.5 43353.5 lineto
47045.1 43316 lineto
47007.6 43241 lineto
47007.6 43091 lineto
47045.1 43016 lineto
47082.5 42978.5 lineto
47157.5 42941.1 lineto
47307.5 42941.1 lineto
47382.5 42978.5 lineto
47420 43016 lineto
47457.5 43091 lineto
47457.5 43241 lineto
47420 43316 lineto
47382.5 43353.5 lineto
47307.5 43391 lineto
stroke
newpath
47944.9 43728.5 moveto
48019.9 43728.5 lineto
48094.9 43691 lineto
48132.4 43653.5 lineto
48169.9 43578.5 lineto
48207.4 43428.5 lineto
48207.4 43241 lineto
48169.9 43091 lineto
48132.4 43016 lineto
48094.9 42978.5 lineto
48019.9 42941.1 lineto
47944.9 42941.1 lineto
47870 42978.5 lineto
47832.5 43016 lineto
47795 43091 lineto
47757.5 43241 lineto
47757.5 43428.5 lineto
47795 43578.5 lineto
47832.5 43653.5 lineto
47870 43691 lineto
47944.9 43728.5 lineto
stroke
newpath
48694.8 43728.5 moveto
48769.8 43728.5 lineto
48844.8 43691 lineto
48882.3 43653.5 lineto
48919.8 43578.5 lineto
48957.3 43428.5 lineto
48957.3 43241 lineto
48919.8 43091 lineto
48882.3 43016 lineto
48844.8 42978.5 lineto
48769.8 42941.1 lineto
48694.8 42941.1 lineto
48619.9 42978.5 lineto
48582.4 43016 lineto
48544.9 43091 lineto
48507.4 43241 lineto
48507.4 43428.5 lineto
48544.9 43578.5 lineto
48582.4 43653.5 lineto
48619.9 43691 lineto
48694.8 43728.5 lineto
stroke
newpath
49294.8 42941.1 moveto
49294.8 43466 lineto
stroke
newpath
49294.8 43391 moveto
49332.3 43428.5 lineto
49407.3 43466 lineto
49519.7 43466 lineto
49594.7 43428.5 lineto
49632.2 43353.5 lineto
49632.2 42941.1 lineto
stroke
newpath
49632.2 43353.5 moveto
49669.7 43428.5 lineto
49744.7 43466 lineto
49857.2 43466 lineto
49932.2 43428.5 lineto
49969.7 43353.5 lineto
49969.7 42941.1 lineto
stroke
newpath
50344.6 42941.1 moveto
50344.6 43466 lineto
stroke
newpath
50344.6 43391 moveto
50382.1 43428.5 lineto
50457.1 43466 lineto
50569.6 43466 lineto
50644.6 43428.5 lineto
50682.1 43353.5 lineto
50682.1 42941.1 lineto
stroke
newpath
50682.1 43353.5 moveto
50719.6 43428.5 lineto
50794.6 43466 lineto
50907.1 43466 lineto
50982.1 43428.5 lineto
51019.6 43353.5 lineto
51019.6 42941.1 lineto
stroke
newpath
52556.9 43765.9 moveto
51882 42753.6 lineto
stroke
newpath
53569.2 43728.5 moveto
53644.2 43728.5 lineto
53719.2 43691 lineto
53756.7 43653.5 lineto
53794.2 43578.5 lineto
53831.7 43428.5 lineto
53831.7 43241 lineto
53794.2 43091 lineto
53756.7 43016 lineto
53719.2 42978.5 lineto
53644.2 42941.1 lineto
53569.2 42941.1 lineto
53494.3 42978.5 lineto
53456.8 43016 lineto
53419.3 43091 lineto
53381.8 43241 lineto
53381.8 43428.5 lineto
53419.3 43578.5 lineto
53456.8 43653.5 lineto
53494.3 43691 lineto
53569.2 43728.5 lineto
stroke
newpath
54169.2 43016 moveto
54206.7 42978.5 lineto
54169.2 42941.1 lineto
54131.7 42978.5 lineto
54169.2 43016 lineto
54169.2 42941.1 lineto
stroke
newpath
54694.1 43728.5 moveto
54769.1 43728.5 lineto
54844.1 43691 lineto
54881.6 43653.5 lineto
54919.1 43578.5 lineto
54956.6 43428.5 lineto
54956.6 43241 lineto
54919.1 43091 lineto
54881.6 43016 lineto
54844.1 42978.5 lineto
54769.1 42941.1 lineto
54694.1 42941.1 lineto
54619.1 42978.5 lineto
54581.6 43016 lineto
54544.1 43091 lineto
54506.6 43241 lineto
54506.6 43428.5 lineto
54544.1 43578.5 lineto
54581.6 43653.5 lineto
54619.1 43691 lineto
54694.1 43728.5 lineto
stroke
newpath
55219 43728.5 moveto
55706.5 43728.5 lineto
55444 43428.5 lineto
55556.5 43428.5 lineto
55631.5 43391 lineto
55669 43353.5 lineto
55706.5 43278.5 lineto
55706.5 43091 lineto
55669 43016 lineto
55631.5 42978.5 lineto
55556.5 42941.1 lineto
55331.5 42941.1 lineto
55256.5 42978.5 lineto
55219 43016 lineto
stroke
newpath
56456.4 42941.1 moveto
56006.4 42941.1 lineto
stroke
newpath
56231.4 42941.1 moveto
56231.4 43728.5 lineto
56156.4 43616 lineto
56081.4 43541 lineto
56006.4 43503.5 lineto
stroke
newpath
57168.8 43728.5 moveto
56793.8 43728.5 lineto
56756.3 43353.5 lineto
56793.8 43391 lineto
56868.8 43428.5 lineto
57056.3 43428.5 lineto
57131.3 43391 lineto
57168.8 43353.5 lineto
57206.3 43278.5 lineto
57206.3 43091 lineto
57168.8 43016 lineto
57131.3 42978.5 lineto
57056.3 42941.1 lineto
56868.8 42941.1 lineto
56793.8 42978.5 lineto
56756.3 43016 lineto
stroke
newpath
57506.3 43728.5 moveto
57506.3 43578.5 lineto
stroke
newpath
57806.2 43728.5 moveto
57806.2 43578.5 lineto
stroke
newpath
58968.6 42641.1 moveto
58931.1 42678.6 lineto
58856.1 42791.1 lineto
58818.6 42866.1 lineto
58781.1 42978.5 lineto
58743.6 43166 lineto
58743.6 43316 lineto
58781.1 43503.5 lineto
58818.6 43616 lineto
58856.1 43691 lineto
58931.1 43803.4 lineto
58968.6 43840.9 lineto
stroke
newpath
59231 43653.5 moveto
59268.5 43691 lineto
59343.5 43728.5 lineto
59531 43728.5 lineto
59606 43691 lineto
59643.5 43653.5 lineto
59681 43578.5 lineto
59681 43503.5 lineto
59643.5 43391 lineto
59193.5 42941.1 lineto
59681 42941.1 lineto
stroke
newpath
60618.4 42941.1 moveto
60618.4 43728.5 lineto
stroke
newpath
60955.8 42941.1 moveto
60955.8 43353.5 lineto
60918.3 43428.5 lineto
60843.3 43466 lineto
60730.8 43466 lineto
60655.9 43428.5 lineto
60618.4 43391 lineto
stroke
newpath
61443.3 42941.1 moveto
61368.3 42978.5 lineto
61330.8 43016 lineto
61293.3 43091 lineto
61293.3 43316 lineto
61330.8 43391 lineto
61368.3 43428.5 lineto
61443.3 43466 lineto
61555.7 43466 lineto
61630.7 43428.5 lineto
61668.2 43391 lineto
61705.7 43316 lineto
61705.7 43091 lineto
61668.2 43016 lineto
61630.7 42978.5 lineto
61555.7 42941.1 lineto
61443.3 42941.1 lineto
stroke
newpath
62155.7 42941.1 moveto
62080.7 42978.5 lineto
62043.2 43053.5 lineto
62043.2 43728.5 lineto
stroke
newpath
62755.6 42978.5 moveto
62680.6 42941.1 lineto
62530.6 42941.1 lineto
62455.6 42978.5 lineto
62418.1 43053.5 lineto
62418.1 43353.5 lineto
62455.6 43428.5 lineto
62530.6 43466 lineto
62680.6 43466 lineto
62755.6 43428.5 lineto
62793.1 43353.5 lineto
62793.1 43278.5 lineto
62418.1 43203.5 lineto
stroke
newpath
63093.1 42978.5 moveto
63168 42941.1 lineto
63318 42941.1 lineto
63393 42978.5 lineto
63430.5 43053.5 lineto
63430.5 43091 lineto
63393 43166 lineto
63318 43203.5 lineto
63205.5 43203.5 lineto
63130.6 43241 lineto
63093.1 43316 lineto
63093.1 43353.5 lineto
63130.6 43428.5 lineto
63205.5 43466 lineto
63318 43466 lineto
63393 43428.5 lineto
stroke
newpath
63693 42641.1 moveto
63730.5 42678.6 lineto
63805.5 42791.1 lineto
63843 42866.1 lineto
63880.5 42978.5 lineto
63918 43166 lineto
63918 43316 lineto
63880.5 43503.5 lineto
63843 43616 lineto
63805.5 43691 lineto
63730.5 43803.4 lineto
63693 43840.9 lineto
stroke
78.7394 setlinewidth
44512.2 42037.4 393.7 cir0
236.22 setlinewidth
78.7406 setlinewidth
0 0 0 setrgbcolor
0 0 0 setrgbcolor
newpath
46070.2 42468.6 moveto
46145.2 42468.6 lineto
46220.2 42431.1 lineto
46257.7 42393.6 lineto
46295.1 42318.6 lineto
46332.6 42168.6 lineto
46332.6 41981.2 lineto
46295.1 41831.2 lineto
46257.7 41756.2 lineto
46220.2 41718.7 lineto
46145.2 41681.2 lineto
46070.2 41681.2 lineto
45995.2 41718.7 lineto
45957.7 41756.2 lineto
45920.2 41831.2 lineto
45882.7 41981.2 lineto
45882.7 42168.6 lineto
45920.2 42318.6 lineto
45957.7 42393.6 lineto
45995.2 42431.1 lineto
46070.2 42468.6 lineto
stroke
newpath
46670.1 41756.2 moveto
46707.6 41718.7 lineto
46670.1 41681.2 lineto
46632.6 41718.7 lineto
46670.1 41756.2 lineto
46670.1 41681.2 lineto
stroke
newpath
47082.5 41681.2 moveto
47232.5 41681.2 lineto
47307.5 41718.7 lineto
47345 41756.2 lineto
47420 41868.7 lineto
47457.5 42018.7 lineto
47457.5 42318.6 lineto
47420 42393.6 lineto
47382.5 42431.1 lineto
47307.5 42468.6 lineto
47157.5 42468.6 lineto
47082.5 42431.1 lineto
47045.1 42393.6 lineto
47007.6 42318.6 lineto
47007.6 42131.2 lineto
47045.1 42056.2 lineto
47082.5 42018.7 lineto
47157.5 41981.2 lineto
47307.5 41981.2 lineto
47382.5 42018.7 lineto
47420 42056.2 lineto
47457.5 42131.2 lineto
stroke
newpath
47944.9 42468.6 moveto
48019.9 42468.6 lineto
48094.9 42431.1 lineto
48132.4 42393.6 lineto
48169.9 42318.6 lineto
48207.4 42168.6 lineto
48207.4 41981.2 lineto
48169.9 41831.2 lineto
48132.4 41756.2 lineto
48094.9 41718.7 lineto
48019.9 41681.2 lineto
47944.9 41681.2 lineto
47870 41718.7 lineto
47832.5 41756.2 lineto
47795 41831.2 lineto
47757.5 41981.2 lineto
47757.5 42168.6 lineto
47795 42318.6 lineto
47832.5 42393.6 lineto
47870 42431.1 lineto
47944.9 42468.6 lineto
stroke
newpath
48694.8 42468.6 moveto
48769.8 42468.6 lineto
48844.8 42431.1 lineto
48882.3 42393.6 lineto
48919.8 42318.6 lineto
48957.3 42168.6 lineto
48957.3 41981.2 lineto
48919.8 41831.2 lineto
48882.3 41756.2 lineto
48844.8 41718.7 lineto
48769.8 41681.2 lineto
48694.8 41681.2 lineto
48619.9 41718.7 lineto
48582.4 41756.2 lineto
48544.9 41831.2 lineto
48507.4 41981.2 lineto
48507.4 42168.6 lineto
48544.9 42318.6 lineto
48582.4 42393.6 lineto
48619.9 42431.1 lineto
48694.8 42468.6 lineto
stroke
newpath
49294.8 41681.2 moveto
49294.8 42206.1 lineto
stroke
newpath
49294.8 42131.2 moveto
49332.3 42168.6 lineto
49407.3 42206.1 lineto
49519.7 42206.1 lineto
49594.7 42168.6 lineto
49632.2 42093.7 lineto
49632.2 41681.2 lineto
stroke
newpath
49632.2 42093.7 moveto
49669.7 42168.6 lineto
49744.7 42206.1 lineto
49857.2 42206.1 lineto
49932.2 42168.6 lineto
49969.7 42093.7 lineto
49969.7 41681.2 lineto
stroke
newpath
50344.6 41681.2 moveto
50344.6 42206.1 lineto
stroke
newpath
50344.6 42131.2 moveto
50382.1 42168.6 lineto
50457.1 42206.1 lineto
50569.6 42206.1 lineto
50644.6 42168.6 lineto
50682.1 42093.7 lineto
50682.1 41681.2 lineto
stroke
newpath
50682.1 42093.7 moveto
50719.6 42168.6 lineto
50794.6 42206.1 lineto
50907.1 42206.1 lineto
50982.1 42168.6 lineto
51019.6 42093.7 lineto
51019.6 41681.2 lineto
stroke
newpath
52556.9 42506.1 moveto
51882 41493.7 lineto
stroke
newpath
53569.2 42468.6 moveto
53644.2 42468.6 lineto
53719.2 42431.1 lineto
53756.7 42393.6 lineto
53794.2 42318.6 lineto
53831.7 42168.6 lineto
53831.7 41981.2 lineto
53794.2 41831.2 lineto
53756.7 41756.2 lineto
53719.2 41718.7 lineto
53644.2 41681.2 lineto
53569.2 41681.2 lineto
53494.3 41718.7 lineto
53456.8 41756.2 lineto
53419.3 41831.2 lineto
53381.8 41981.2 lineto
53381.8 42168.6 lineto
53419.3 42318.6 lineto
53456.8 42393.6 lineto
53494.3 42431.1 lineto
53569.2 42468.6 lineto
stroke
newpath
54169.2 41756.2 moveto
54206.7 41718.7 lineto
54169.2 41681.2 lineto
54131.7 41718.7 lineto
54169.2 41756.2 lineto
54169.2 41681.2 lineto
stroke
newpath
54694.1 42468.6 moveto
54769.1 42468.6 lineto
54844.1 42431.1 lineto
54881.6 42393.6 lineto
54919.1 42318.6 lineto
54956.6 42168.6 lineto
54956.6 41981.2 lineto
54919.1 41831.2 lineto
54881.6 41756.2 lineto
54844.1 41718.7 lineto
54769.1 41681.2 lineto
54694.1 41681.2 lineto
54619.1 41718.7 lineto
54581.6 41756.2 lineto
54544.1 41831.2 lineto
54506.6 41981.2 lineto
54506.6 42168.6 lineto
54544.1 42318.6 lineto
54581.6 42393.6 lineto
54619.1 42431.1 lineto
54694.1 42468.6 lineto
stroke
newpath
55219 42468.6 moveto
55706.5 42468.6 lineto
55444 42168.6 lineto
55556.5 42168.6 lineto
55631.5 42131.2 lineto
55669 42093.7 lineto
55706.5 42018.7 lineto
55706.5 41831.2 lineto
55669 41756.2 lineto
55631.5 41718.7 lineto
55556.5 41681.2 lineto
55331.5 41681.2 lineto
55256.5 41718.7 lineto
55219 41756.2 lineto
stroke
newpath
56418.9 42468.6 moveto
56043.9 42468.6 lineto
56006.4 42093.7 lineto
56043.9 42131.2 lineto
56118.9 42168.6 lineto
56306.4 42168.6 lineto
56381.4 42131.2 lineto
56418.9 42093.7 lineto
56456.4 42018.7 lineto
56456.4 41831.2 lineto
56418.9 41756.2 lineto
56381.4 41718.7 lineto
56306.4 41681.2 lineto
56118.9 41681.2 lineto
56043.9 41718.7 lineto
56006.4 41756.2 lineto
stroke
newpath
57131.3 42206.1 moveto
57131.3 41681.2 lineto
stroke
newpath
56943.8 42506.1 moveto
56756.3 41943.7 lineto
57243.8 41943.7 lineto
stroke
newpath
57506.3 42468.6 moveto
57506.3 42318.6 lineto
stroke
newpath
57806.2 42468.6 moveto
57806.2 42318.6 lineto
stroke
newpath
58968.6 41381.2 moveto
58931.1 41418.7 lineto
58856.1 41531.2 lineto
58818.6 41606.2 lineto
58781.1 41718.7 lineto
58743.6 41906.2 lineto
58743.6 42056.2 lineto
58781.1 42243.6 lineto
58818.6 42356.1 lineto
58856.1 42431.1 lineto
58931.1 42543.6 lineto
58968.6 42581.1 lineto
stroke
newpath
59231 42393.6 moveto
59268.5 42431.1 lineto
59343.5 42468.6 lineto
59531 42468.6 lineto
59606 42431.1 lineto
59643.5 42393.6 lineto
59681 42318.6 lineto
59681 42243.6 lineto
59643.5 42131.2 lineto
59193.5 41681.2 lineto
59681 41681.2 lineto
stroke
newpath
60618.4 41681.2 moveto
60618.4 42468.6 lineto
stroke
newpath
60955.8 41681.2 moveto
60955.8 42093.7 lineto
60918.3 42168.6 lineto
60843.3 42206.1 lineto
60730.8 42206.1 lineto
60655.9 42168.6 lineto
60618.4 42131.2 lineto
stroke
newpath
61443.3 41681.2 moveto
61368.3 41718.7 lineto
61330.8 41756.2 lineto
61293.3 41831.2 lineto
61293.3 42056.2 lineto
61330.8 42131.2 lineto
61368.3 42168.6 lineto
61443.3 42206.1 lineto
61555.7 42206.1 lineto
61630.7 42168.6 lineto
61668.2 42131.2 lineto
61705.7 42056.2 lineto
61705.7 41831.2 lineto
61668.2 41756.2 lineto
61630.7 41718.7 lineto
61555.7 41681.2 lineto
61443.3 41681.2 lineto
stroke
newpath
62155.7 41681.2 moveto
62080.7 41718.7 lineto
62043.2 41793.7 lineto
62043.2 42468.6 lineto
stroke
newpath
62755.6 41718.7 moveto
62680.6 41681.2 lineto
62530.6 41681.2 lineto
62455.6 41718.7 lineto
62418.1 41793.7 lineto
62418.1 42093.7 lineto
62455.6 42168.6 lineto
62530.6 42206.1 lineto
62680.6 42206.1 lineto
62755.6 42168.6 lineto
62793.1 42093.7 lineto
62793.1 42018.7 lineto
62418.1 41943.7 lineto
stroke
newpath
63093.1 41718.7 moveto
63168 41681.2 lineto
63318 41681.2 lineto
63393 41718.7 lineto
63430.5 41793.7 lineto
63430.5 41831.2 lineto
63393 41906.2 lineto
63318 41943.7 lineto
63205.5 41943.7 lineto
63130.6 41981.2 lineto
63093.1 42056.2 lineto
63093.1 42093.7 lineto
63130.6 42168.6 lineto
63205.5 42206.1 lineto
63318 42206.1 lineto
63393 42168.6 lineto
stroke
newpath
63693 41381.2 moveto
63730.5 41418.7 lineto
63805.5 41531.2 lineto
63843 41606.2 lineto
63880.5 41718.7 lineto
63918 41906.2 lineto
63918 42056.2 lineto
63880.5 42243.6 lineto
63843 42356.1 lineto
63805.5 42431.1 lineto
63730.5 42543.6 lineto
63693 42581.1 lineto
stroke
78.7394 setlinewidth
newpath
44512.2 41171.3 moveto
44512.2 40383.9 lineto
stroke
newpath
44118.5 40777.6 moveto
44905.9 40777.6 lineto
stroke
236.22 setlinewidth
78.7406 setlinewidth
0 0 0 setrgbcolor
0 0 0 setrgbcolor
newpath
46332.6 40421.4 moveto
45882.7 40421.4 lineto
stroke
newpath
46107.7 40421.4 moveto
46107.7 41208.8 lineto
46032.7 41096.3 lineto
45957.7 41021.3 lineto
45882.7 40983.8 lineto
stroke
newpath
46670.1 40496.4 moveto
46707.6 40458.9 lineto
46670.1 40421.4 lineto
46632.6 40458.9 lineto
46670.1 40496.4 lineto
46670.1 40421.4 lineto
stroke
newpath
47195 41208.8 moveto
47270 41208.8 lineto
47345 41171.3 lineto
47382.5 41133.8 lineto
47420 41058.8 lineto
47457.5 40908.8 lineto
47457.5 40721.3 lineto
47420 40571.3 lineto
47382.5 40496.4 lineto
47345 40458.9 lineto
47270 40421.4 lineto
47195 40421.4 lineto
47120 40458.9 lineto
47082.5 40496.4 lineto
47045.1 40571.3 lineto
47007.6 40721.3 lineto
47007.6 40908.8 lineto
47045.1 41058.8 lineto
47082.5 41133.8 lineto
47120 41171.3 lineto
47195 41208.8 lineto
stroke
newpath
47944.9 41208.8 moveto
48019.9 41208.8 lineto
48094.9 41171.3 lineto
48132.4 41133.8 lineto
48169.9 41058.8 lineto
48207.4 40908.8 lineto
48207.4 40721.3 lineto
48169.9 40571.3 lineto
48132.4 40496.4 lineto
48094.9 40458.9 lineto
48019.9 40421.4 lineto
47944.9 40421.4 lineto
47870 40458.9 lineto
47832.5 40496.4 lineto
47795 40571.3 lineto
47757.5 40721.3 lineto
47757.5 40908.8 lineto
47795 41058.8 lineto
47832.5 41133.8 lineto
47870 41171.3 lineto
47944.9 41208.8 lineto
stroke
newpath
48694.8 41208.8 moveto
48769.8 41208.8 lineto
48844.8 41171.3 lineto
48882.3 41133.8 lineto
48919.8 41058.8 lineto
48957.3 40908.8 lineto
48957.3 40721.3 lineto
48919.8 40571.3 lineto
48882.3 40496.4 lineto
48844.8 40458.9 lineto
48769.8 40421.4 lineto
48694.8 40421.4 lineto
48619.9 40458.9 lineto
48582.4 40496.4 lineto
48544.9 40571.3 lineto
48507.4 40721.3 lineto
48507.4 40908.8 lineto
48544.9 41058.8 lineto
48582.4 41133.8 lineto
48619.9 41171.3 lineto
48694.8 41208.8 lineto
stroke
newpath
49294.8 40421.4 moveto
49294.8 40946.3 lineto
stroke
newpath
49294.8 40871.3 moveto
49332.3 40908.8 lineto
49407.3 40946.3 lineto
49519.7 40946.3 lineto
49594.7 40908.8 lineto
49632.2 40833.8 lineto
49632.2 40421.4 lineto
stroke
newpath
49632.2 40833.8 moveto
49669.7 40908.8 lineto
49744.7 40946.3 lineto
49857.2 40946.3 lineto
49932.2 40908.8 lineto
49969.7 40833.8 lineto
49969.7 40421.4 lineto
stroke
newpath
50344.6 40421.4 moveto
50344.6 40946.3 lineto
stroke
newpath
50344.6 40871.3 moveto
50382.1 40908.8 lineto
50457.1 40946.3 lineto
50569.6 40946.3 lineto
50644.6 40908.8 lineto
50682.1 40833.8 lineto
50682.1 40421.4 lineto
stroke
newpath
50682.1 40833.8 moveto
50719.6 40908.8 lineto
50794.6 40946.3 lineto
50907.1 40946.3 lineto
50982.1 40908.8 lineto
51019.6 40833.8 lineto
51019.6 40421.4 lineto
stroke
newpath
52556.9 41246.3 moveto
51882 40233.9 lineto
stroke
newpath
53569.2 41208.8 moveto
53644.2 41208.8 lineto
53719.2 41171.3 lineto
53756.7 41133.8 lineto
53794.2 41058.8 lineto
53831.7 40908.8 lineto
53831.7 40721.3 lineto
53794.2 40571.3 lineto
53756.7 40496.4 lineto
53719.2 40458.9 lineto
53644.2 40421.4 lineto
53569.2 40421.4 lineto
53494.3 40458.9 lineto
53456.8 40496.4 lineto
53419.3 40571.3 lineto
53381.8 40721.3 lineto
53381.8 40908.8 lineto
53419.3 41058.8 lineto
53456.8 41133.8 lineto
53494.3 41171.3 lineto
53569.2 41208.8 lineto
stroke
newpath
54169.2 40496.4 moveto
54206.7 40458.9 lineto
54169.2 40421.4 lineto
54131.7 40458.9 lineto
54169.2 40496.4 lineto
54169.2 40421.4 lineto
stroke
newpath
54694.1 41208.8 moveto
54769.1 41208.8 lineto
54844.1 41171.3 lineto
54881.6 41133.8 lineto
54919.1 41058.8 lineto
54956.6 40908.8 lineto
54956.6 40721.3 lineto
54919.1 40571.3 lineto
54881.6 40496.4 lineto
54844.1 40458.9 lineto
54769.1 40421.4 lineto
54694.1 40421.4 lineto
54619.1 40458.9 lineto
54581.6 40496.4 lineto
54544.1 40571.3 lineto
54506.6 40721.3 lineto
54506.6 40908.8 lineto
54544.1 41058.8 lineto
54581.6 41133.8 lineto
54619.1 41171.3 lineto
54694.1 41208.8 lineto
stroke
newpath
55219 41208.8 moveto
55706.5 41208.8 lineto
55444 40908.8 lineto
55556.5 40908.8 lineto
55631.5 40871.3 lineto
55669 40833.8 lineto
55706.5 40758.8 lineto
55706.5 40571.3 lineto
55669 40496.4 lineto
55631.5 40458.9 lineto
55556.5 40421.4 lineto
55331.5 40421.4 lineto
55256.5 40458.9 lineto
55219 40496.4 lineto
stroke
newpath
56081.4 40421.4 moveto
56231.4 40421.4 lineto
56306.4 40458.9 lineto
56343.9 40496.4 lineto
56418.9 40608.8 lineto
56456.4 40758.8 lineto
56456.4 41058.8 lineto
56418.9 41133.8 lineto
56381.4 41171.3 lineto
56306.4 41208.8 lineto
56156.4 41208.8 lineto
56081.4 41171.3 lineto
56043.9 41133.8 lineto
56006.4 41058.8 lineto
56006.4 40871.3 lineto
56043.9 40796.3 lineto
56081.4 40758.8 lineto
56156.4 40721.3 lineto
56306.4 40721.3 lineto
56381.4 40758.8 lineto
56418.9 40796.3 lineto
56456.4 40871.3 lineto
stroke
newpath
57131.3 40946.3 moveto
57131.3 40421.4 lineto
stroke
newpath
56943.8 41246.3 moveto
56756.3 40683.8 lineto
57243.8 40683.8 lineto
stroke
newpath
57506.3 41208.8 moveto
57506.3 41058.8 lineto
stroke
newpath
57806.2 41208.8 moveto
57806.2 41058.8 lineto
stroke
newpath
58968.6 40121.4 moveto
58931.1 40158.9 lineto
58856.1 40271.4 lineto
58818.6 40346.4 lineto
58781.1 40458.9 lineto
58743.6 40646.3 lineto
58743.6 40796.3 lineto
58781.1 40983.8 lineto
58818.6 41096.3 lineto
58856.1 41171.3 lineto
58931.1 41283.8 lineto
58968.6 41321.3 lineto
stroke
newpath
59231 41133.8 moveto
59268.5 41171.3 lineto
59343.5 41208.8 lineto
59531 41208.8 lineto
59606 41171.3 lineto
59643.5 41133.8 lineto
59681 41058.8 lineto
59681 40983.8 lineto
59643.5 40871.3 lineto
59193.5 40421.4 lineto
59681 40421.4 lineto
stroke
newpath
60618.4 40421.4 moveto
60618.4 41208.8 lineto
stroke
newpath
60955.8 40421.4 moveto
60955.8 40833.8 lineto
60918.3 40908.8 lineto
60843.3 40946.3 lineto
60730.8 40946.3 lineto
60655.9 40908.8 lineto
60618.4 40871.3 lineto
stroke
newpath
61443.3 40421.4 moveto
61368.3 40458.9 lineto
61330.8 40496.4 lineto
61293.3 40571.3 lineto
61293.3 40796.3 lineto
61330.8 40871.3 lineto
61368.3 40908.8 lineto
61443.3 40946.3 lineto
61555.7 40946.3 lineto
61630.7 40908.8 lineto
61668.2 40871.3 lineto
61705.7 40796.3 lineto
61705.7 40571.3 lineto
61668.2 40496.4 lineto
61630.7 40458.9 lineto
61555.7 40421.4 lineto
61443.3 40421.4 lineto
stroke
newpath
62155.7 40421.4 moveto
62080.7 40458.9 lineto
62043.2 40533.9 lineto
62043.2 41208.8 lineto
stroke
newpath
62755.6 40458.9 moveto
62680.6 40421.4 lineto
62530.6 40421.4 lineto
62455.6 40458.9 lineto
62418.1 40533.9 lineto
62418.1 40833.8 lineto
62455.6 40908.8 lineto
62530.6 40946.3 lineto
62680.6 40946.3 lineto
62755.6 40908.8 lineto
62793.1 40833.8 lineto
62793.1 40758.8 lineto
62418.1 40683.8 lineto
stroke
newpath
63093.1 40458.9 moveto
63168 40421.4 lineto
63318 40421.4 lineto
63393 40458.9 lineto
63430.5 40533.9 lineto
63430.5 40571.3 lineto
63393 40646.3 lineto
63318 40683.8 lineto
63205.5 40683.8 lineto
63130.6 40721.3 lineto
63093.1 40796.3 lineto
63093.1 40833.8 lineto
63130.6 40908.8 lineto
63205.5 40946.3 lineto
63318 40946.3 lineto
63393 40908.8 lineto
stroke
newpath
63693 40121.4 moveto
63730.5 40158.9 lineto
63805.5 40271.4 lineto
63843 40346.4 lineto
63880.5 40458.9 lineto
63918 40646.3 lineto
63918 40796.3 lineto
63880.5 40983.8 lineto
63843 41096.3 lineto
63805.5 41171.3 lineto
63730.5 41283.8 lineto
63693 41321.3 lineto
stroke
showpage
grestore
%%EOF
