%TF.GenerationSoftware,KiCad,Pcbnew,(6.0.1)*%
%TF.CreationDate,2022-01-25T19:30:03-08:00*%
%TF.ProjectId,tutorial,7475746f-7269-4616-9c2e-6b696361645f,rev?*%
%TF.SameCoordinates,Original*%
%TF.FileFunction,Copper,L1,Top*%
%TF.FilePolarity,Positive*%
%FSLAX46Y46*%
G04 Gerber Fmt 4.6, Leading zero omitted, Abs format (unit mm)*
G04 Created by KiCad (PCBNEW (6.0.1)) date 2022-01-25 19:30:03*
%MOMM*%
%LPD*%
G01*
G04 APERTURE LIST*
%TA.AperFunction,ComponentPad*%
%ADD10C,1.600000*%
%TD*%
%TA.AperFunction,ComponentPad*%
%ADD11O,1.600000X1.600000*%
%TD*%
%TA.AperFunction,ComponentPad*%
%ADD12R,1.800000X1.800000*%
%TD*%
%TA.AperFunction,ComponentPad*%
%ADD13C,1.800000*%
%TD*%
%TA.AperFunction,ComponentPad*%
%ADD14R,1.700000X1.700000*%
%TD*%
%TA.AperFunction,ComponentPad*%
%ADD15O,1.700000X1.700000*%
%TD*%
%TA.AperFunction,Conductor*%
%ADD16C,0.250000*%
%TD*%
G04 APERTURE END LIST*
D10*
%TO.P,R1,1*%
%TO.N,Net-(D1-Pad2)*%
X68580000Y-91440000D03*
D11*
%TO.P,R1,2*%
%TO.N,Net-(BT1-Pad1)*%
X58420000Y-91440000D03*
%TD*%
D12*
%TO.P,D1,1,K*%
%TO.N,Net-(BT1-Pad2)*%
X68580000Y-101600000D03*
D13*
%TO.P,D1,2,A*%
%TO.N,Net-(D1-Pad2)*%
X68580000Y-99060000D03*
%TD*%
D14*
%TO.P,BT1,1,+*%
%TO.N,Net-(BT1-Pad1)*%
X58420000Y-99060000D03*
D15*
%TO.P,BT1,2,-*%
%TO.N,Net-(BT1-Pad2)*%
X58420000Y-101600000D03*
%TD*%
D16*
%TO.N,Net-(BT1-Pad1)*%
X58420000Y-91440000D02*
X58420000Y-99060000D01*
%TO.N,Net-(D1-Pad2)*%
X68580000Y-91440000D02*
X68580000Y-99060000D01*
%TD*%
M02*
